-------------------------------------------------------------------------------
Test set: com.gto.talan.authentificationServer.SpringBootJwtAuthenticationApplicationTests
-------------------------------------------------------------------------------
Tests run: 1, Failures: 0, Errors: 0, Skipped: 0, Time elapsed: 21.345 s - in com.gto.talan.authentificationServer.SpringBootJwtAuthenticationApplicationTests
